EEC487/Lab 7 - 0 Count Counter/simulation/qsim/zero_count.msim.vcd
$comment
	File created using the following command:
		vcd file zero_count.msim.vcd -direction
$end
$date
	Mon Nov 02 21:30:55 2015
$end
$version
	ModelSim Version 10.1d
$end
$timescale
	1ps
$end
$scope module zero_top_vlg_vec_tst $end
$var reg 10 ! a [9:0] $end
$var reg 1 " clk $end
$var reg 1 # reset $end
$var reg 1 $ start $end
$var wire 1 % count [3] $end
$var wire 1 & count [2] $end
$var wire 1 ' count [1] $end
$var wire 1 ( count [0] $end
$var wire 1 ) ready $end
$var wire 1 * sampler $end
$scope module i1 $end
$var wire 1 + gnd $end
$var wire 1 , vcc $end
$var wire 1 - unknown $end
$var tri1 1 . devclrn $end
$var tri1 1 / devpor $end
$var tri1 1 0 devoe $end
$var wire 1 1 fsm_block|temp_next[0]~0_combout $end
$var wire 1 2 fsm_block|temp_next[1]~2_combout $end
$var wire 1 3 fsm_block|temp_next[2]~5_combout $end
$var wire 1 4 fsm_block|temp_next[3]~8_combout $end
$var wire 1 5 clk~combout $end
$var wire 1 6 clk~clkctrl_outclk $end
$var wire 1 7 start~combout $end
$var wire 1 8 fsm_block|Selector1~0_combout $end
$var wire 1 9 reset~combout $end
$var wire 1 : fsm_block|state_reg.reset~regout $end
$var wire 1 ; fsm_block|Selector2~0_combout $end
$var wire 1 < fsm_block|state_reg.idle~regout $end
$var wire 1 = fsm_block|Selector0~0_combout $end
$var wire 1 > fsm_block|state_reg.counting~regout $end
$var wire 1 ? fsm_block|temp_next[0]~1_combout $end
$var wire 1 @ fsm_block|Selector6~0_combout $end
$var wire 1 A fsm_block|sum~0_combout $end
$var wire 1 B fsm_block|sum~4_combout $end
$var wire 1 C fsm_block|sum~2_combout $end
$var wire 1 D fsm_block|sum~3_combout $end
$var wire 1 E fsm_block|sum~5_combout $end
$var wire 1 F fsm_block|temp_next[1]~3_combout $end
$var wire 1 G fsm_block|Selector5~0_combout $end
$var wire 1 H fsm_block|sum~6_combout $end
$var wire 1 I fsm_block|sum~7_combout $end
$var wire 1 J fsm_block|sum~8_combout $end
$var wire 1 K fsm_block|sum~9_combout $end
$var wire 1 L fsm_block|sum~10_combout $end
$var wire 1 M fsm_block|temp_next[2]~4_combout $end
$var wire 1 N fsm_block|temp_next[2]~6_combout $end
$var wire 1 O fsm_block|Selector4~0_combout $end
$var wire 1 P fsm_block|sum~1_combout $end
$var wire 1 Q fsm_block|Add7~0_combout $end
$var wire 1 R fsm_block|temp_next[3]~7_combout $end
$var wire 1 S fsm_block|Add8~0_combout $end
$var wire 1 T fsm_block|temp_next[3]~9_combout $end
$var wire 1 U fsm_block|temp_next[3]~10_combout $end
$var wire 1 V fsm_block|temp_next[3]~11_combout $end
$var wire 1 W fsm_block|Selector3~0_combout $end
$var wire 1 X a~combout [9] $end
$var wire 1 Y a~combout [8] $end
$var wire 1 Z a~combout [7] $end
$var wire 1 [ a~combout [6] $end
$var wire 1 \ a~combout [5] $end
$var wire 1 ] a~combout [4] $end
$var wire 1 ^ a~combout [3] $end
$var wire 1 _ a~combout [2] $end
$var wire 1 ` a~combout [1] $end
$var wire 1 a a~combout [0] $end
$var wire 1 b fsm_block|temp_reg [3] $end
$var wire 1 c fsm_block|temp_reg [2] $end
$var wire 1 d fsm_block|temp_reg [1] $end
$var wire 1 e fsm_block|temp_reg [0] $end
$var wire 1 f fsm_block|temp_next [3] $end
$var wire 1 g fsm_block|temp_next [2] $end
$var wire 1 h fsm_block|temp_next [1] $end
$var wire 1 i fsm_block|temp_next [0] $end
$upscope $end
$upscope $end
$enddefinitions $end
#0
$dumpvars
b0 !
0"
0#
0$
0(
0'
0&
0%
1)
x*
0+
1,
x-
1.
1/
10
01
02
03
14
05
06
07
18
09
0:
1;
0<
0=
0>
0?
0@
0A
0B
0C
1D
1E
0F
0G
1H
1I
0J
1K
1L
0M
0N
0O
0P
0Q
0R
0S
0T
1U
0V
0W
0a
0`
0_
0^
0]
0\
0[
0Z
0Y
0X
0e
0d
0c
0b
0i
0h
0g
0f
$end
#1000
1"
15
16
0*
#2000
0"
05
06
1*
#2623
1$
17
0*
0;
08
#3000
1"
15
16
1*
#4000
0"
05
06
0*
#5000
1"
15
16
1*
#6000
0"
05
06
0*
#6555
0$
07
1*
1;
18
#7000
1"
15
16
0*
#8000
0"
05
06
1*
#9000
1"
15
16
0*
#9289
1$
17
1*
0;
08
#10000
b1 !
0"
1a
05
06
0*
12
11
#11000
1"
15
16
1*
#12000
0"
05
06
0*
#13000
1"
15
16
1*
#13221
0$
07
0*
1;
18
#14000
0"
05
06
1*
#15000
1"
15
16
0*
#15955
1$
17
1*
0;
08
#16000
0"
05
06
0*
#17000
1"
15
16
1*
#18000
0"
05
06
0*
#19000
1"
15
16
1*
#19887
0$
07
0*
1;
18
#20000
b11 !
b10 !
0"
0a
1`
05
06
1*
#21000
1"
15
16
0*
#22000
0"
05
06
1*
#23000
1"
15
16
0*
#24000
0"
05
06
1*
#24352
1$
17
0*
0;
08
#25000
1"
15
16
1*
#26000
0"
05
06
0*
#27000
1"
15
16
1*
#28000
0"
05
06
0*
#29000
1"
15
16
1*
#30000
b11 !
0"
1a
05
06
0*
01
#31000
1"
15
16
1*
#32000
0"
05
06
0*
#33000
1"
15
16
1*
#33152
0$
07
0*
1;
18
#34000
0"
05
06
1*
#35000
1"
15
16
0*
#36000
0"
05
06
1*
#37000
1"
15
16
0*
#38000
0"
05
06
1*
#39000
1"
15
16
0*
#40000
1#
b111 !
b101 !
b100 !
1$
0"
19
0a
0`
1_
17
05
06
1*
11
1Q
0I
0;
08
13
1M
04
0U
#41000
1"
15
16
0*
#42000
0"
05
06
1*
#42868
0$
07
0*
1;
18
#43000
1"
15
16
1*
1<
1:
1=
0;
#44000
0"
05
06
0*
#45000
1"
15
16
1*
1>
0<
1R
1?
0=
1;
0)
1U
1i
1V
1@
1f
1(
1W
1%
#46000
0"
05
06
0*
#47000
1"
15
16
1*
1b
1e
0>
1<
1=
0;
1)
#48000
0"
05
06
0*
#49000
1"
15
16
1*
1>
0<
0=
1;
0)
#50000
0#
b101 !
0"
09
1a
05
06
0*
01
0?
0i
0@
0(
0:
0>
0e
0b
0W
0R
1)
0V
0U
0%
0f
#51000
1"
15
16
1*
#52000
0"
05
06
0*
#53000
1"
15
16
1*
#54000
0"
05
06
0*
#55000
1"
15
16
1*
#56000
0"
05
06
0*
#56268
1$
17
1*
0;
08
#57000
1"
15
16
0*
#58000
0"
05
06
1*
#59000
1"
15
16
0*
#60000
b111 !
b110 !
0$
0"
0a
1`
07
05
06
1*
03
1S
1;
18
1T
13
1U
#61000
1"
15
16
0*
#62000
0"
05
06
1*
#62293
1$
17
0*
0;
08
#63000
1"
15
16
1*
#64000
0"
05
06
0*
#65000
1"
15
16
1*
#66000
0"
05
06
0*
#66793
0$
07
1*
1;
18
#67000
1"
15
16
0*
#68000
0"
05
06
1*
#69000
1"
15
16
0*
#70000
b111 !
1$
0"
1a
17
05
06
1*
0T
03
02
11
0;
08
0U
#70190
0$
07
0*
1;
18
#71000
1"
15
16
1*
#72000
0"
05
06
0*
#72224
1$
17
1*
0;
08
#73000
1"
15
16
0*
#73523
0$
07
1*
1;
18
#74000
0"
05
06
0*
#75000
1"
15
16
1*
#75557
1$
17
0*
0;
08
#76000
0"
05
06
1*
#76856
0$
07
0*
1;
18
#77000
1"
15
16
1*
#78000
0"
05
06
0*
#78890
1$
17
1*
0;
08
#79000
1"
15
16
0*
#80000
b1111 !
b1011 !
b1001 !
b1000 !
0$
0"
0a
0`
0_
1^
07
05
06
1*
1T
01
0S
0Q
1P
1;
18
1U
0T
1Q
12
11
0U
13
#81000
1"
15
16
0*
#81165
1$
17
1*
0;
08
#82000
0"
05
06
0*
#82198
0$
07
1*
1;
18
#83000
1"
15
16
0*
#84000
0"
05
06
1*
#84498
1$
17
0*
0;
08
#85000
1"
15
16
1*
#85531
0$
07
0*
1;
18
#86000
0"
05
06
1*
#87000
1"
15
16
0*
#87831
1$
17
1*
0;
08
#88000
0"
05
06
0*
#88864
0$
07
1*
1;
18
#89000
1"
15
16
0*
#90000
b1001 !
1$
0"
1a
17
05
06
1*
01
0;
08
#90458
0$
07
0*
1;
18
#91000
1"
15
16
1*
#92000
0"
05
06
0*
#93000
1"
15
16
1*
#94000
0"
05
06
0*
#95000
1"
15
16
1*
#95558
1$
17
0*
0;
08
#96000
0"
05
06
1*
#97000
1"
15
16
0*
#98000
0"
05
06
1*
#99000
1"
15
16
0*
#100000
b1011 !
b1010 !
0"
0a
1`
05
06
1*
03
1S
1T
13
1U
#100458
0$
07
0*
1;
18
#101000
1"
15
16
1*
#102000
0"
05
06
0*
#103000
1"
15
16
1*
#104000
0"
05
06
0*
#105000
1"
15
16
1*
#105558
1$
17
0*
0;
08
#106000
0"
05
06
1*
#107000
1"
15
16
0*
#108000
0"
05
06
1*
#109000
1"
15
16
0*
#110000
1#
b1011 !
0$
0"
19
1a
07
05
06
1*
0T
03
02
11
1;
18
0U
#111000
1"
15
16
0*
1<
1:
1=
0;
#112000
0"
05
06
1*
#113000
1"
15
16
0*
1>
0<
1N
1F
1?
0=
1;
0)
1g
1h
1i
1O
1G
1@
1&
1'
1(
#114000
0"
05
06
1*
#115000
1"
15
16
0*
1c
1d
1e
0>
1<
1=
0;
1)
#116000
0"
05
06
1*
#117000
1"
15
16
0*
1>
0<
0=
1;
0)
#118000
0"
05
06
1*
#119000
1"
15
16
0*
0>
1<
1=
0;
1)
#119191
1$
17
1*
0=
1;
#120000
b1111 !
b1101 !
0#
b1100 !
0"
0a
0`
1_
09
05
06
0*
1T
12
01
0Q
1U
13
0:
0<
0e
0d
0c
0;
08
0O
0G
0@
0?
0F
0N
0&
0'
0(
#121000
1"
15
16
1*
#122000
0"
05
06
0*
#123000
1"
15
16
1*
#124000
0"
05
06
0*
#125000
1"
15
16
1*
#125991
0$
07
0*
0g
0h
0i
1;
18
#126000
0"
05
06
1*
#127000
1"
15
16
0*
#128000
0"
05
06
1*
#129000
1"
15
16
0*
#130000
b1101 !
0"
1a
05
06
1*
0T
03
02
11
0U
#131000
1"
15
16
0*
#132000
0"
05
06
1*
#132253
1$
17
0*
0;
08
#133000
1"
15
16
1*
#134000
0"
05
06
0*
#135000
1"
15
16
1*
#136000
0"
05
06
0*
#137000
1"
15
16
1*
#138000
0"
05
06
0*
#138253
0$
07
1*
1;
18
#139000
1"
15
16
0*
#140000
b1111 !
1#
b1110 !
1$
0"
0a
1`
19
17
05
06
1*
1T
13
0S
0;
08
1U
0T
03
0U
#140334
0$
07
0*
1;
18
#141000
1"
15
16
1*
1<
1:
1=
0;
#142000
0"
05
06
0*
#142601
1$
17
1*
0=
1;
#143000
1"
15
16
0*
#143667
0$
07
1*
1=
0;
#144000
0"
05
06
0*
#145000
1"
15
16
1*
1>
0<
1N
1F
1?
0=
1;
0)
1g
1h
1i
1O
1G
1@
1&
1'
1(
#145934
1$
17
0*
#146000
0"
05
06
1*
#147000
0$
1"
07
15
16
0*
1c
1d
1e
0>
1<
1=
0;
1)
#148000
0"
05
06
1*
#149000
1"
15
16
0*
1>
0<
0=
1;
0)
#149267
1$
17
1*
#150000
0#
b1111 !
0"
09
1a
05
06
0*
01
0?
0:
0>
0e
0d
0c
0;
08
0O
0N
0G
0F
0@
1)
0&
0'
0(
#151000
1"
15
16
1*
#152000
0"
05
06
0*
#153000
1"
15
16
1*
#154000
0"
05
06
0*
#155000
1"
15
16
1*
#156000
0"
05
06
0*
#157000
1"
15
16
1*
#158000
0"
05
06
0*
#159000
1"
15
16
1*
#159162
0$
07
0*
0g
0h
0i
1;
18
#160000
b11111 !
b10111 !
b10011 !
b10001 !
b10000 !
0"
0a
0`
0_
0^
1]
05
06
1*
12
11
1Q
1I
1B
0K
0H
0D
13
0M
14
0I
1U
1M
04
0U
#161000
1"
15
16
0*
#162000
0"
05
06
1*
#163000
1"
15
16
0*
#164000
0"
05
06
1*
#165000
1"
15
16
0*
#166000
0"
05
06
1*
#167000
1"
15
16
0*
#167362
1$
17
1*
0;
08
#168000
0"
05
06
0*
#169000
1"
15
16
1*
#170000
b10001 !
0"
1a
05
06
0*
01
#170081
0$
07
1*
1;
18
#171000
1"
15
16
0*
#172000
0"
05
06
1*
#173000
1"
15
16
0*
#174000
0"
05
06
1*
#175000
1"
15
16
0*
#176000
0"
05
06
1*
#176281
1$
17
0*
0;
08
#177000
1"
15
16
1*
#178000
0"
05
06
0*
#179000
1"
15
16
1*
#180000
b10011 !
b10010 !
0$
0"
0a
1`
07
05
06
0*
03
1S
1;
18
1T
13
1U
#181000
1"
15
16
1*
#182000
0"
05
06
0*
#183000
1"
15
16
1*
#184000
0"
05
06
0*
#184797
1$
17
1*
0;
08
#185000
1"
15
16
0*
#186000
0"
05
06
1*
#187000
1"
15
16
0*
#188000
0"
05
06
1*
#189000
1"
15
16
0*
#190000
b10011 !
0"
1a
05
06
1*
0T
03
02
11
0U
#191000
1"
15
16
0*
#192000
0"
05
06
1*
#193000
1"
15
16
0*
#194000
0"
05
06
1*
#195000
1"
15
16
0*
#195797
0$
07
1*
1;
18
#196000
0"
05
06
0*
#197000
1"
15
16
1*
#198000
0"
05
06
0*
#199000
1"
15
16
1*
