EEC487/Lab 1 - Intro/simulation/qsim/Demo.msim.vcd
$comment
	File created using the following command:
		vcd file Demo.msim.vcd -direction
$end
$date
	Wed Sep 09 20:38:31 2015
$end
$version
	ModelSim Version 10.1d
$end
$timescale
	1ps
$end
$scope module eq2_vlg_vec_tst $end
$var reg 2 ! a [1:0] $end
$var reg 2 " b [1:0] $end
$var wire 1 # aeqb $end
$var wire 1 $ sampler $end
$scope module i1 $end
$var wire 1 % gnd $end
$var wire 1 & vcc $end
$var wire 1 ' unknown $end
$var tri1 1 ( devclrn $end
$var tri1 1 ) devpor $end
$var tri1 1 * devoe $end
$var wire 1 + aeqb~0_combout $end
$var wire 1 , b~combout [1] $end
$var wire 1 - b~combout [0] $end
$var wire 1 . a~combout [1] $end
$var wire 1 / a~combout [0] $end
$upscope $end
$upscope $end
$enddefinitions $end
#0
$dumpvars
b1 !
b10 "
0#
x$
0%
1&
x'
1(
1)
1*
1+
0-
1,
1/
0.
$end
#928
b11 "
1-
0$
#2465
b0 !
0/
1$
#3927
b10 "
0-
0$
#7594
b11 "
1-
1$
#8049
b1 "
0,
0$
#10593
b0 "
0-
1$
0+
1#
#14260
b1 "
1-
0$
1+
0#
#14265
b1 !
1/
1$
0+
1#
#17259
b0 "
0-
0$
1+
0#
#17649
b10 "
1,
1$
#20000
b11 !
b10 !
b11 "
b1 "
1-
0,
0/
1.
0$
#22777
b11 "
1,
1$
#24548
b10 "
0-
0$
0+
1#
#25000
b0 !
0.
1$
1+
0#
#28577
b0 "
0,
0$
0+
1#
#31167
b10 "
1,
1$
1+
0#
#31599
b1 !
1/
0$
#33300
b0 "
0,
1$
#33548
b1 "
1-
0$
0+
1#
#35000
b11 !
1.
1$
1+
0#
#37833
b11 "
1,
0$
0+
1#
#38599
b10 !
0/
1$
1+
0#
#39966
b1 "
0,
0$
#40000
b0 "
0-
1$
#40894
b11 !
1/
0$
#41755
b1 "
1-
1$
#42127
b10 !
0/
0$
#44088
b0 "
0-
1$
#44227
b11 !
1/
0$
#44499
b10 "
1,
1$
#45460
b10 !
0/
0$
0+
1#
#46632
b0 "
0,
1$
1+
0#
#47560
b11 !
1/
0$
#48421
b1 "
1-
1$
#48793
b10 !
0/
0$
#50000
b11 "
b11 !
1/
1,
1$
0+
1#
#50754
b10 "
0-
0$
1+
0#
#51468
b10 !
0/
1$
0+
1#
#54023
b0 "
0,
0$
1+
0#
#55000
b0 !
0.
1$
0+
1#
#55087
b1 "
1-
0$
1+
0#
#57420
b0 "
0-
1$
0+
1#
#58168
b1 !
1/
0$
1+
0#
#61468
b0 !
0/
1$
0+
1#
#64023
b10 "
1,
0$
1+
0#
#65385
b11 "
1-
1$
#68168
b1 !
1/
0$
#69585
b10 "
0-
1$
#70000
b11 !
b0 "
b10 !
0,
0/
1.
0$
#72349
b10 "
1,
1$
0+
1#
#74649
b0 "
0,
0$
1+
0#
#75000
b0 !
0.
1$
0+
1#
#75298
b1 !
1/
0$
1+
0#
#75385
b1 "
1-
1$
0+
1#
#77349
b11 "
1,
0$
1+
0#
#78898
b0 !
0/
1$
#79585
b10 "
0-
0$
#79649
b0 "
0,
1$
0+
1#
#80000
b10 !
b11 !
1/
1.
0$
1+
0#
#80209
b10 !
0/
1$
#81576
b11 !
1/
0$
#82668
b10 "
1,
1$
#83542
b10 !
0/
0$
0+
1#
#84909
b11 !
1/
1$
1+
0#
#85000
b1 !
0.
0$
#85069
b11 "
1-
1$
#86875
b0 !
0/
0$
#87068
b1 "
0,
1$
#88242
b1 !
1/
0$
0+
1#
#88969
b0 "
0-
1$
1+
0#
#90000
b0 !
0/
0$
0+
1#
#90044
b1 "
1-
1$
1+
0#
#91410
b0 "
0-
0$
0+
1#
#93364
b1 !
1/
1$
1+
0#
#93377
b1 "
1-
0$
0+
1#
#94743
b0 "
0-
1$
1+
0#
#96710
b1 "
1-
0$
0+
1#
#98076
b0 "
0-
1$
1+
0#
#100000
b11 !
b1 "
1-
1.
0$
#100564
b10 !
0/
1$
#102830
b11 "
1,
0$
#103112
b10 "
0-
1$
0+
1#
#108612
b11 "
1-
0$
1+
0#
#109030
b1 "
0,
1$
#110000
b11 "
1,
0$
#110049
b1 "
0,
1$
#112083
b11 "
1,
0$
#113042
b10 "
0-
1$
0+
1#
#113382
b0 "
0,
0$
1+
0#
#115000
b0 !
0.
1$
0+
1#
#115416
b10 "
1,
0$
1+
0#
#116715
b0 "
0,
1$
0+
1#
#118749
b10 "
1,
0$
1+
0#
#119873
b1 !
1/
1$
#120000
b0 "
0,
0$
#122661
b10 "
1,
1$
#125000
b11 !
1.
0$
#126461
b0 "
0,
1$
#126642
b1 "
1-
0$
#128473
b10 !
0/
1$
#130000
b11 !
1/
0$
#132004
b0 "
0-
1$
#134273
b10 "
1,
0$
#134745
b10 !
0/
1$
0+
1#
#135000
b0 !
0.
0$
1+
0#
#137304
b11 "
1-
1$
#139045
b1 !
1/
0$
#139473
b1 "
0,
1$
0+
1#
#140000
b11 !
b10 !
0/
1.
0$
1+
0#
#141966
b0 "
0-
1$
#144273
b10 "
1,
0$
0+
1#
#145000
b0 !
0.
1$
1+
0#
#146433
b11 "
1-
0$
#146724
b1 !
1/
1$
#148632
b10 "
0-
0$
#149473
b0 "
0,
1$
#150000
b11 !
b10 "
1,
1.
0$
#153099
b11 "
1-
1$
0+
1#
#155000
b1 !
0.
0$
1+
0#
#155124
b0 !
0/
1$
#155298
b10 "
0-
0$
#157945
b0 "
0,
1$
0+
1#
#159765
b1 "
1-
0$
1+
0#
#160335
b1 !
1/
1$
0+
1#
#162885
b0 !
0/
0$
1+
0#
#165000
b10 !
1.
1$
#165335
b11 !
1/
0$
#166128
b0 "
0-
1$
#167545
b10 "
1,
0$
#167885
b10 !
0/
1$
0+
1#
#170000
b11 !
1/
0$
1+
0#
#170167
b0 "
0,
1$
#173340
b10 !
0/
0$
#175000
b0 !
0.
1$
0+
1#
#176967
b10 "
1,
0$
1+
0#
#177740
b1 !
1/
1$
#179528
b11 "
1-
0$
#180000
b10 "
0-
1$
#180167
b0 "
0,
0$
#181833
b1 "
1-
1$
0+
1#
#183340
b0 !
0/
0$
1+
0#
#186733
b0 "
0-
1$
0+
1#
#186967
b10 "
1,
0$
1+
0#
#187740
b1 !
1/
1$
#190000
b11 "
b1 "
1-
0,
0$
0+
1#
#190035
b0 !
0/
1$
1+
0#
#191197
b0 "
0-
0$
0+
1#
#191286
b10 "
1,
1$
1+
0#
#192631
b11 "
1-
0$
#193285
b1 !
1/
1$
#194530
b10 "
0-
0$
#194786
b0 "
0,
1$
#195035
b0 !
0/
0$
0+
1#
#195964
b1 "
1-
1$
1+
0#
#197863
b0 "
0-
0$
0+
1#
#198285
b1 !
1/
1$
1+
0#
#199297
b1 "
1-
0$
0+
1#
